%YAML 1.1
%TAG !u! tag:unity3d.com,2011:
--- !u!1045 &1
EditorBuildSettings:
  m_ObjectHideFlags: 0
  serializedVersion: 2
  m_Scenes:
  - enabled: 0
    path: 
  - enabled: 0
    path: Assets/1_SelfDrivingCar/Scenes/LakeTrackTraining.unity
  - enabled: 0
    path: Assets/1_SelfDrivingCar/Scenes/LauncherScene.unity
  - enabled: 0
    path: Assets/1_SelfDrivingCar/Scenes/LakeTrackAutonomous.unity
  - enabled: 0
    path: Assets/1_SelfDrivingCar/Scenes/MenuScene.unity
  - enabled: 0
    path: Assets/1_SelfDrivingCar/Scenes/ControlMenu.unity
  - enabled: 0
    path: Assets/1_SelfDrivingCar/Scenes/JungleTrackAutonomous.unity
  - enabled: 0
    path: Assets/1_SelfDrivingCar/Scenes/JungleTrackTraining.unity
  - enabled: 1
    path: Assets/1_SelfDrivingCar/Scenes/BreachScene.unity
  - enabled: 1
    path: Assets/1_SelfDrivingCar/Scenes/LakeTrackBreach.unity
  - enabled: 0
    path: Assets/1_SelfDrivingCar/Scenes/LakeTrackBreachCow.unity
  - enabled: 1
    path: Assets/1_SelfDrivingCar/Scenes/LakeTrackBreachStatic.unity
